Chapter 8 中文文本資料處理 | RLads Lab
…
一般而言，tidytext 的架構適合用於與詞頻有關的分析，例如，計算文章的 lexical diversity 或是透過情緒詞的詞頻進行情緒分析。

透過 tidytext::unnest_tokens()，可以將 docs_df 中儲存之 (已斷詞) 文本資料，變成 tidytext format，i.e.，one-token-per-document-per-row 的 data frame:

library(tidytext)
library(dplyr)

tidy_text_format <- docs_df %>%
  unnest_tokens(output = "word", input = "content",
                token = "regex", pattern = "\u3000")  # 以空白字元作為 token 分隔依據

tidy_text_format

#> # A tibble: 139 x 2
#>    doc_id word 
#>     <int> <chr>
#>  1      1 蝴蝶 
#>  2      1 和   
#>  3      1 蜜蜂 
#>  4      1 們   
#>  5      1 帶   
#>  6      1 著   
#>  7      1 花朵 
#>  8      1 的   
#>  9      1 蜜糖 
#> 10      1 回來 
#> # … with 129 more rows

8.3.1 詞頻表

可以使用 dplyr 的 group_by() 與 summarise() 計算詞頻表：

tidy_text_format %>%
  group_by(word) %>%
  summarise(n = n()) %>%
  arrange(desc(n))

#> # A tibble: 99 x 2
#>    word      n
#>    <chr> <int>
#>  1 了       11
#>  2 我       11
#>  3 的        6
#>  4 她        3
#>  5 說        3
#>  6 一位      2
#>  7 什麼      2
#>  8 便        2
#>  9 叫        2
#> 10 和        2
#> # … with 89 more rows

# Equivalent to ...
tidy_text_format %>%
  count(word) %>%
  arrange(desc(n))

#> # A tibble: 99 x 2
#>    word      n
#>    <chr> <int>
#>  1 了       11
#>  2 我       11
#>  3 的        6
#>  4 她        3
#>  5 說        3
#>  6 一位      2
#>  7 什麼      2
#>  8 便        2
#>  9 叫        2
#> 10 和        2
#> # … with 89 more rows
…
